{
  "restApiRoot": "/api",
  "host": "0.0.0.0",
  "port": 777,
  "remoting": {
    "context": {
      "enableHttpContext": false
    },
    "rest": {
      "normalizeHttpPath": false,
      "xml": false
    },
    "json": {
      "strict": false,
      "limit": "100kb"
    },
    "urlencoded": {
      "extended": true,
      "limit": "100kb"
    },
    "cors": false,
    "handleErrors": false
  },
  "services": {
    "coinbase": {
      "key": "I0hoGL8SPz5ShNvR",
      "secret": "pcGu36YDUc5dGIF24vNAyjGJH6qhibEb"
    }
  },
  "legacyExplorer": false
}
