{
  "_meta": {
    "sources": [
      "loopback/common/models",
      "loopback/server/models",
      "../common/models",
      "./models"
    ],
    "mixins": [
      "loopback/common/mixins",
      "loopback/server/mixins",
      "../common/mixins",
      "./mixins"
    ]
  },
  "User": {
    "dataSource": "bitcoin",
    "public": false
  },
  "AccessToken": {
    "dataSource": "bitcoin",
    "public": false
  },
  "ACL": {
    "dataSource": "bitcoin",
    "public": false
  },
  "RoleMapping": {
    "dataSource": "bitcoin",
    "public": false
  },
  "Role": {
    "dataSource": "bitcoin",
    "public": false
  },
  "Address": {
    "dataSource": "bitcoin",
    "public": true,
    "$promise": {},
    "$resolved": true
  },
  "Users": {
    "dataSource": "bitcoin",
    "public": true,
    "$promise": {},
    "$resolved": true
  }
}
